# Name,   Type, SubType, Offset,  Size
# Note: if you change the phy_init or app partition offset, make sure to change the offset in Kconfig.projbuild
nvs,      data, nvs,     0x9000,  0x6000
phy_init, data, phy,     0xf000,  0x1000
factory,  app,  factory, 0x10000, 0x50000
rom0, 0x40, 0x40, 0x060000, 0x41000
rom1, 0x40, 0x41, 0x0a1000, 0x41000
rom2, 0x40, 0x42, 0x0e2000, 0x41000
rom3, 0x40, 0x43, 0x123000, 0x41000
rom4, 0x40, 0x44, 0x164000, 0x41000
rom5, 0x40, 0x45, 0x1a5000, 0x41000
rom6, 0x40, 0x46, 0x1e6000, 0x41000
rom7, 0x40, 0x47, 0x227000, 0x41000
rom8, 0x40, 0x48, 0x268000, 0x41000
rom9, 0x40, 0x49, 0x2a9000, 0x41000
roma, 0x40, 0x4a, 0x2ea000, 0x41000
romb, 0x40, 0x4b, 0x32b000, 0x41000
romc, 0x40, 0x4c, 0x36c000, 0x41000
romd, 0x40, 0x4d, 0x3ad000, 0x41000
rome, 0x40, 0x4e, 0x3ee000, 0x11000
